GLOBALSTAR M001 [-]     
1 25162U 98008A   19101.29764682 -.00000047  00000-0  38077-3 0  9997
2 25162  52.0038  67.1284 0001409 181.8235 325.9625 12.38104232964003
GLOBALSTAR M004 [-]     
1 25163U 98008B   19101.34760758 -.00000096  00000-0  44244-4 0  9992
2 25163  51.9978 104.4934 0003139 329.6393 137.0474 12.63282967976288
GLOBALSTAR M002 [-]     
1 25164U 98008C   19100.51152658 -.00000073  00000-0  65202-4 0  9997
2 25164  51.9995 145.7238 0000841 335.7813  24.2967 11.61470308921565
GLOBALSTAR M003 [-]     
1 25165U 98008D   19101.04246348 -.00000139  00000-0 -53146-3 0  9994
2 25165  52.0094 306.5534 0008018  61.1343 105.8319 12.12063232959385
GLOBALSTAR M014 [-]     
1 25306U 98023A   19101.21710870 -.00000083  00000-0 -10814-3 0  9996
2 25306  51.9812 114.6119 0000694 156.0406 283.1314 11.65425747927796
GLOBALSTAR M006 [-]     
1 25307U 98023B   19101.11895008 -.00000082  00000-0 -13133-3 0  9999
2 25307  51.9928  82.9242 0003972 354.1022  84.5031 11.58129811955195
GLOBALSTAR M015 [-]     
1 25308U 98023C   19101.39009579 -.00000069  00000-0  10523-3 0  9994
2 25308  51.9816  77.3672 0012294  19.5284 150.0962 11.48840273934848
GLOBALSTAR M008 [-]     
1 25309U 98023D   19101.78585753 -.00000060  00000-0  28757-3 0  9990
2 25309  51.9955 265.0597 0003317 101.2058   5.0615 12.35975115958884
GLOBALSTAR M023 [-]     
1 25621U 99004A   19100.49574869 -.00000092  00000-0  63569-4 0  9996
2 25621  52.0096  93.1948 0009821 171.2180 332.2340 12.62364443930413
GLOBALSTAR M040 [-]     
1 25622U 99004B   19100.47822347 -.00000098  00000-0  30862-4 0  9998
2 25622  51.9904  94.1307 0000935  65.3546 102.7967 12.61889996930257
GLOBALSTAR M036 [-]     
1 25623U 99004C   19101.18753105 -.00000081  00000-0  20768-4 0  9999
2 25623  51.9965  74.2084 0012097  44.9012  71.8584 11.86564321910807
GLOBALSTAR M038 [-]     
1 25624U 99004D   19100.51685355 -.00000094  00000-0  71573-5 0  9992
2 25624  51.9960  98.4735 0001910  14.4292 136.3634 12.32437412923706
GLOBALSTAR M022 [-]     
1 25649U 99012A   19100.91191399 -.00000056  00000-0  37490-3 0  9998
2 25649  52.0046 312.1824 0002934  45.1192  58.0610 12.02433610904663
GLOBALSTAR M041 [-]     
1 25650U 99012B   19101.39880958 -.00000076  00000-0  12084-3 0  9993
2 25650  51.9997 123.4054 0002963 214.6042 145.4601 11.96601280908112
GLOBALSTAR M046 [-]     
1 25651U 99012C   19100.87102649 -.00000160  00000-0 -78943-3 0  9991
2 25651  52.0077 344.8497 0002992  60.8648  65.1901 12.09337660910644
GLOBALSTAR M037 [+]     
1 25652U 99012D   19101.15174021 -.00000076  00000-0  15261-3 0  9996
2 25652  51.9999 222.6884 0001670 208.1391 218.9621 12.62321716926023
GLOBALSTAR M045 [-]     
1 25676U 99019A   19101.41537139 -.00000075  00000-0  16815-3 0  9996
2 25676  51.9958 262.5200 0000434 134.8701 248.2109 12.26962030916358
GLOBALSTAR M019 [-]     
1 25677U 99019B   19101.70310340 -.00000030  00000-0  62151-3 0  9997
2 25677  51.9865 233.3883 0001501  89.4198  16.8970 12.13807178911054
GLOBALSTAR M044 [-]     
1 25678U 99019C   19101.85282587 -.00000091  00000-0 -10209-3 0  9990
2 25678  51.9961 261.8377 0006021  11.1826  53.1793 11.90189685902392
GLOBALSTAR M042 [-]     
1 25679U 99019D   19100.88067715 -.00000072  00000-0  18877-3 0  9994
2 25679  52.0017 308.4796 0002568 347.8780 112.5046 12.22007968909106
GLOBALSTAR M025 [-]     
1 25770U 99031A   19101.12663323 -.00000055  00000-0  39375-3 0  9992
2 25770  51.9850 352.3812 0001157 327.7121 184.1215 11.22526894885678
GLOBALSTAR M049 [-]     
1 25771U 99031B   19101.39910698 -.00000087  00000-0 -74586-3 0  9991
2 25771  51.9861 272.9878 0001641 208.7891 151.2815 11.12093022866110
GLOBALSTAR M047 [-]     
1 25772U 99031C   19101.20165495 -.00000074  00000-0 -13354-3 0  9991
2 25772  51.9805 126.2135 0016155 343.7396  16.2889 11.31894615890073
GLOBALSTAR M052 [-]     
1 25773U 99031D   19101.16288890 -.00000044  00000-0  73545-3 0  9996
2 25773  51.9883  53.9684 0002766  27.5134  70.8362 11.15027738884346
GLOBALSTAR M035 [-]     
1 25851U 99037A   19101.15888907 -.00000043  00000-0  77478-3 0  9991
2 25851  51.9971  52.6419 0013663 282.8660 173.6931 11.04510161846652
GLOBALSTAR M032 [-]     
1 25852U 99037B   19101.13119324 -.00000113  00000-0 -14751-2 0  9993
2 25852  51.9981  33.7815 0001745  18.3445 341.7417 11.19032264881942
GLOBALSTAR M051 [-]     
1 25853U 99037C   19100.48053418 -.00000082  00000-0 -24431-3 0  9994
2 25853  51.9780  91.9503 0001401 193.7176 341.6340 11.42172053874198
GLOBALSTAR M030 [-]     
1 25854U 99037D   19101.21499103 -.00000032  00000-0  90174-3 0  9993
2 25854  51.9903  39.8478 0003983 310.8684  49.1787 11.55056175889103
GLOBALSTAR M048 [-]     
1 25872U 99041A   19101.30298802 -.00000059  00000-0  29963-3 0  9998
2 25872  51.9366 297.6314 0012732 230.3497 179.3375 11.33817238868634
GLOBALSTAR M026 [-]     
1 25873U 99041B   19101.42127948 -.00000035  00000-0  10676-2 0  9998
2 25873  51.9995 193.6953 0001145 147.0019 292.3799 11.06777848898582
GLOBALSTAR M043 [-]     
1 25874U 99041C   19100.88455508 -.00000034  00000-0  10334-2 0  9994
2 25874  51.9411 316.2863 0013524  65.6900  29.2841 11.25658807868471
GLOBALSTAR M028 [-]     
1 25875U 99041D   19101.47410078 -.00000111  00000-0 -73610-4 0  9999
2 25875  51.9617  87.4668 0063112 207.0841 152.6721 12.50494869907617
GLOBALSTAR M024 [-]     
1 25883U 99043A   19101.16172152 -.00000138  00000-0 -25871-2 0  9997
2 25883  52.0012  77.6047 0001554 354.0839  85.9179 11.10138132864004
GLOBALSTAR M027 [+]     
1 25884U 99043B   19101.19705448 -.00000083  00000-0 -72629-3 0  9994
2 25884  52.0198  91.5961 0021666 302.7132  57.1573 11.04355555891701
GLOBALSTAR M054 [-]     
1 25885U 99043C   19101.69138520 -.00000154  00000-0 -21035-2 0  9994
2 25885  52.0131 236.6597 0005115 210.8822 250.2202 11.39174252861985
GLOBALSTAR M053 [-]     
1 25886U 99043D   19101.18707611 -.00000076  00000-0 -21183-3 0  9990
2 25886  51.9992  59.6867 0002896 197.5889 260.9747 11.27634017864745
GLOBALSTAR M058 [-]     
1 25907U 99049A   19100.93248578 -.00000054  00000-0  40948-3 0  9999
2 25907  51.9972  21.4611 0001017 217.9428 142.1335 11.93124651271850
GLOBALSTAR M050 [-]     
1 25908U 99049B   19101.53767185 -.00000160  00000-0 -80684-3 0  9997
2 25908  51.9982 196.2731 0009117 206.9319 220.6115 12.07384236880084
GLOBALSTAR M033 [-]     
1 25909U 99049C   19101.37234838  .00000025  00000-0  11205-2 0  9994
2 25909  51.9909 224.5673 0011993 336.9939  23.0370 12.20254739892700
GLOBALSTAR M055 [-]     
1 25910U 99049D   19101.79305280 -.00000095  00000-0 -66823-5 0  9990
2 25910  52.0041 343.9684 0007651 116.0088 244.1552 12.29345279890735
GLOBALSTAR M057 [-]     
1 25943U 99058A   19101.30253272 -.00000098  00000-0 -49540-4 0  9995
2 25943  51.9981 278.1877 0002903  47.3197 312.7897 12.24737909890214
GLOBALSTAR M059 [+]     
1 25944U 99058B   19101.17711466 -.00000095  00000-0 -10941-3 0  9994
2 25944  52.0010 198.1702 0001236 165.0377 223.3507 11.99932410891608
GLOBALSTAR M056 [-]     
1 25945U 99058C   19101.08720394 -.00000011  00000-0  89642-3 0  9996
2 25945  51.9954 258.3390 0001204  44.9580  84.8025 12.04725175890386
GLOBALSTAR M031 [-]     
1 25946U 99058D   19101.81501090  .00000011  00000-0  10342-2 0  9997
2 25946  51.9953 283.6807 0000634 272.8588 189.0583 12.15956876890042
GLOBALSTAR M039 [-]     
1 25961U 99062A   19101.33324381 -.00000089  00000-0  82758-4 0  9990
2 25961  51.9847 307.7952 0003288  40.1043 320.0065 12.62206674894985
GLOBALSTAR M034 [-]     
1 25962U 99062B   19100.25581458 -.00000085  00000-0 -58340-4 0  9998
2 25962  51.9853 125.4953 0014466  91.3606  12.7967 11.79388781871722
GLOBALSTAR M029 [+]     
1 25963U 99062C   19100.47376826 -.00000090  00000-0 -48848-4 0  9992
2 25963  51.9793  89.9794 0002723 358.6970 176.3195 11.99837084897915
GLOBALSTAR M061 [-]     
1 25964U 99062D   19101.67321641 -.00000089  00000-0 -14180-3 0  9990
2 25964  51.9784 275.9475 0006339  47.4789  33.6985 11.76728146855589
GLOBALSTAR M063 [+]     
1 26081U 00008A   19101.74001205 -.00000065  00000-0  25105-3 0  9994
2 26081  51.9949 299.1529 0004106 313.1266 127.8689 11.86117924889631
GLOBALSTAR M062 [-]     
1 26082U 00008B   19101.41488882 -.00000115  00000-0 -12023-3 0  9991
2 26082  51.9840 257.3186 0006097 329.7480  54.9174 12.43358715878130
GLOBALSTAR M060 [-]     
1 26083U 00008C   19101.41528852 -.00000101  00000-0 -10423-3 0  9991
2 26083  52.0012 257.9060 0002908 191.2331 193.2619 12.17570805877389
GLOBALSTAR M064 [-]     
1 26084U 00008D   19101.33496848 -.00000079  00000-0  64545-4 0  9990
2 26084  52.0035  65.6820 0002005  44.1577 315.9415 11.88481474898626
GLOBALSTAR M065 [+]     
1 31571U 07020A   19101.64333229 -.00000082  00000-0  12240-3 0  9993
2 31571  51.9900 262.4174 0001225 155.9550 283.0550 12.62262702548515
GLOBALSTAR M069 [+]     
1 31573U 07020C   19100.54324646 -.00000089  00000-0  83874-4 0  9995
2 31573  51.9945 221.7327 0001082 174.9231 242.8928 12.62263492549208
GLOBALSTAR M072 [+]     
1 31574U 07020D   19101.81112043 -.00000084  00000-0  10987-3 0  9992
2 31574  52.0086 312.1168 0001622  94.7988 346.8041 12.62267567547771
GLOBALSTAR M071 [P]     
1 31576U 07020F   19101.52466444 -.00000083  00000-0  11610-3 0  9992
2 31576  52.0062 222.4321 0001731 164.9911 273.7924 12.62265290549229
GLOBALSTAR M067 [+]     
1 32263U 07048A   19101.40889788 -.00000076  00000-0  15611-3 0  9990
2 32263  51.9717 164.6326 0000827 187.7851 256.7882 12.40585269529365
GLOBALSTAR M070 [+]     
1 32264U 07048B   19101.35233762 -.00000098  00000-0  32851-4 0  9990
2 32264  51.9744 169.3101 0001341 220.9658 215.6354 12.62265504529387
GLOBALSTAR M066 [+]     
1 32265U 07048C   19101.85636230 -.00000095  00000-0  48953-4 0  9990
2 32265  51.9699  30.6290 0000832  79.0079 348.5439 12.62264311531670
GLOBALSTAR M068 [-]     
1 32266U 07048D   19101.41444024 -.00000081  00000-0  12534-3 0  9991
2 32266  51.9906 346.7949 0001217 129.9192 278.3410 12.62702675532482
GLOBALSTAR M079 [+]     
1 37188U 10054A   19101.54191969 -.00000095  00000-0  47213-4 0  9999
2 37188  52.0033 175.4849 0000205  71.5057  34.9485 12.62265676391898
GLOBALSTAR M074 [+]     
1 37189U 10054B   19101.24173949 -.00000095  00000-0  46385-4 0  9994
2 37189  52.0007 176.0719 0000249  26.2103  36.3524 12.62268941391854
GLOBALSTAR M076 [+]     
1 37190U 10054C   19101.43035828 -.00000090  00000-0  77152-4 0  9991
2 37190  52.0022 175.4584 0000496  44.0192  36.5085 12.62266422391885
GLOBALSTAR M077 [+]     
1 37191U 10054D   19100.55566618 -.00000101  00000-0  14522-4 0  9995
2 37191  52.0058 134.3356 0000382  47.3359  75.3154 12.62269228392056
GLOBALSTAR M075 [+]     
1 37192U 10054E   19101.52277858 -.00000089  00000-0  83377-4 0  9998
2 37192  51.9943 218.6857 0000536  68.5047  10.7640 12.62270192391133
GLOBALSTAR M073 [+]     
1 37193U 10054F   19101.53657078 -.00000111  00000-0 -39779-4 0  9990
2 37193  52.0040 130.7548 0000394  73.8367  69.1581 12.62265566392649
GLOBALSTAR M083 [+]     
1 37739U 11033A   19101.13966515 -.00000108  00000-0 -23601-4 0  9992
2 37739  51.9850  83.7756 0000055  46.9015  31.9440 12.62265233361924
GLOBALSTAR M088 [+]     
1 37740U 11033B   19101.82697730 -.00000099  00000-0  25565-4 0  9999
2 37740  51.9753 349.0803 0000487  59.5401  24.7975 12.62263348357481
GLOBALSTAR M091 [+]     
1 37741U 11033C   19101.06671806 -.00000086  00000-0  98172-4 0  9992
2 37741  51.9999 310.9033 0000570  89.2340  78.4474 12.62264002358143
GLOBALSTAR M085 [+]     
1 37742U 11033D   19101.41752792 -.00000091  00000-0  68958-4 0  9991
2 37742  51.9854 262.8708 0000518 119.1039 262.2540 12.62262169358934
GLOBALSTAR M081 [+]     
1 37743U 11033E   19101.77867169 -.00000106  00000-0 -12417-4 0  9993
2 37743  51.9954 263.1626 0000350  73.8770  30.8699 12.62267797359017
GLOBALSTAR M089 [+]     
1 37744U 11033F   19101.66040049 -.00000112  00000-0 -46207-4 0  9993
2 37744  51.9928 218.1754 0000756 106.2843   0.1443 12.62266324359712
GLOBALSTAR M084 [+]     
1 38040U 11080A   19101.52653718 -.00000108  00000-0 -22835-4 0  9999
2 38040  51.9999  84.6878 0000724  72.3453  84.4577 12.62265062337704
GLOBALSTAR M080 [+]     
1 38041U 11080B   19101.42154909 -.00000117  00000-0 -72444-4 0  9998
2 38041  52.0050  85.8183 0000751  65.0079  95.7803 12.62261942337676
GLOBALSTAR M082 [+]     
1 38042U 11080C   19101.27755031 -.00000101  00000-0  14577-4 0  9990
2 38042  52.0092  41.4696 0000168  69.4634  94.8898 12.62264825338394
GLOBALSTAR M092 [+]     
1 38043U 11080D   19101.23115569 -.00000104  00000-0  92897-8 0  9991
2 38043  52.0071 131.8523 0000557 115.1564 319.3900 12.62265201336888
GLOBALSTAR M090 [+]     
1 38044U 11080E   19101.22062212 -.00000099  00000-0  28284-4 0  9995
2 38044  51.9903  38.3602 0000413  67.8821  79.7056 12.62264764338378
GLOBALSTAR M086 [+]     
1 38045U 11080F   19101.25083435 -.00000108  00000-0 -21149-4 0  9994
2 38045  51.9915  38.6447 0001712  28.6840 136.0201 12.62262236338383
GLOBALSTAR M097 [+]     
1 39072U 13005A   19101.32026060 -.00000095  00000-0  51455-4 0  9990
2 39072  52.0050 310.6735 0000573  58.3881 301.7042 12.62268505285625
GLOBALSTAR M093 [+]     
1 39073U 13005B   19101.76893668 -.00000090  00000-0  79176-4 0  9990
2 39073  51.9810 306.2323 0000313  50.3117 309.7777 12.62264280285672
GLOBALSTAR M094 [+]     
1 39074U 13005C   19101.61053743 -.00000089  00000-0  83232-4 0  9993
2 39074  51.9952 218.8349 0000330  93.6433 266.4472 12.62262461287151
GLOBALSTAR M096 [+]     
1 39075U 13005D   19101.62400050 -.00000084  00000-0  11031-3 0  9994
2 39075  52.0063 265.5442 0000452  92.7676 267.3242 12.62264973286417
GLOBALSTAR M078 [+]     
1 39076U 13005E   19101.11730637 -.00000107  00000-0 -17695-4 0  9996
2 39076  51.9899 354.6315 0001496 204.9842 155.0952 12.62096038284833
GLOBALSTAR M095 [+]     
1 39077U 13005F   19100.91123447 -.00000087  00000-0  91863-4 0  9994
2 39077  51.9822 353.6236 0000212 158.0119 202.0757 12.62267714284794
